{
    "KPlugin": {
        "Description": "Manage color profile of devices",
        "Description[ar]": "أدر تشكيلات ألوان الأجهزة",
        "Description[az]": "Rəng profillərinin və ya cihazlarının idarə edilməsi",
        "Description[bg]": "Управление на цветни профили на устройства",
        "Description[ca@valencia]": "Gestiona els perfils de color dels dispositius",
        "Description[ca]": "Gestiona els perfils de color dels dispositius",
        "Description[de]": "Farbprofile von Geräten verwalten",
        "Description[el]": "Διαχειρίζεται το χρωματικό προφίλ των συσκευών",
        "Description[en_GB]": "Manage colour profile of devices",
        "Description[eo]": "Administri kolorprofilon de aparatoj",
        "Description[es]": "Gestión de perfiles de color de dispositivos",
        "Description[eu]": "Kudeatu gailuen kolore-profilak",
        "Description[fi]": "Hallitse laitteiden väriprofiileja",
        "Description[fr]": "Gérer un profil de couleurs de périphériques",
        "Description[gl]": "Xestionar o perfil de cores de dispositivos.",
        "Description[hu]": "Az eszközök színprofiljainak kezelése",
        "Description[ia]": "Gere profilos de color de dispositivos",
        "Description[id]": "Kelola profil warna perangkat",
        "Description[it]": "Gestisci i profili colore dei dispositivi",
        "Description[ja]": "デバイスのカラープロファイルを管理",
        "Description[ka]": "მოწყობილობების ფერის პროფილის მართვა",
        "Description[ko]": "장치 색 프로필 관리",
        "Description[lt]": "Tvarkyti įrenginių spalvų profilius",
        "Description[lv]": "Pārvaldiet ierīču krāsu profilus",
        "Description[nl]": "Kleurprofielen van apparaten beheren",
        "Description[nn]": "Handsam fargeprofil til einingar",
        "Description[pa]": "ਡਿਵਾਈਸਾਂ ਲਈ ਰੰਗ ਪਰੋਫਾਇਲ ਦਾ ਇੰਤਜ਼ਾਮ ਕਰੋ",
        "Description[pl]": "Zarządzanie profilami kolorów dla urządzeń",
        "Description[pt]": "Gerir os perfis de cores dos dispositivos",
        "Description[pt_BR]": "Gerencie o perfil de cores dos dispositivos",
        "Description[ro]": "Gestionează profilul de culoare al dispozitivelor",
        "Description[ru]": "Управление цветовыми профилями устройств",
        "Description[sk]": "Spravovať farebný profil zariadení",
        "Description[sl]": "Upravljaj barvne profile naprav",
        "Description[sv]": "Hantera färgprofiler för enheter",
        "Description[tr]": "Aygıtların renk profilini yönet",
        "Description[uk]": "Керування профілем кольорів пристроїв",
        "Description[x-test]": "xxManage color profile of devicesxx",
        "Description[zh_CN]": "管理设备的色彩特性文件",
        "Description[zh_TW]": "管理裝置的色彩設定檔",
        "Icon": "preferences-desktop-color",
        "Name": "Color Management",
        "Name[ar]": "إدارة الألوان",
        "Name[az]": "Rənglərin idarə edilməsi",
        "Name[bg]": "Управление на цветовете",
        "Name[ca@valencia]": "Gestió del color",
        "Name[ca]": "Gestió del color",
        "Name[cs]": "Správa barev",
        "Name[de]": "Farbverwaltung",
        "Name[el]": "Διαχείριση χρωμάτων",
        "Name[en_GB]": "Colour Management",
        "Name[eo]": "Kolormastrumado",
        "Name[es]": "Gestión del color",
        "Name[eu]": "Kolore kudeaketa",
        "Name[fi]": "Värinhallinta",
        "Name[fr]": "Gestionnaire de couleurs",
        "Name[gl]": "Xestión de cores",
        "Name[hu]": "Színkezelés",
        "Name[ia]": "Gerente de color",
        "Name[id]": "Pengelolaan Warna",
        "Name[it]": "Gestione del colore",
        "Name[ja]": "カラーマネジメント",
        "Name[ka]": "ფერების მართვა",
        "Name[ko]": "색 관리",
        "Name[lt]": "Spalvų tvarkymas",
        "Name[lv]": "Krāsu pārvaldnieks",
        "Name[nl]": "Kleurbeheer",
        "Name[nn]": "Fargestyring",
        "Name[pa]": "ਰੰਗ ਇੰਤਜ਼ਾਮ",
        "Name[pl]": "Zarządzanie kolorem",
        "Name[pt]": "Gestão de Cores",
        "Name[pt_BR]": "Gerenciamento de cores",
        "Name[ro]": "Gestiunea culorilor",
        "Name[ru]": "Управление цветом",
        "Name[sk]": "Správa farieb",
        "Name[sl]": "Upravljanje barv",
        "Name[sv]": "Färghantering",
        "Name[tr]": "Renk Yönetimi",
        "Name[uk]": "Керування кольорами",
        "Name[x-test]": "xxColor Managementxx",
        "Name[zh_CN]": "色彩管理",
        "Name[zh_TW]": "色彩管理",
        "ServiceTypes": [
            "KCModule"
        ]
    },
    "X-KDE-Kded-phase": "1",
    "X-KDE-Keywords": "color,color management,icc",
    "X-KDE-ParentApp": "kcontrol",
    "X-KDE-System-Settings-Parent-Category": "hardware",
    "X-KDE-System-Settings-Parent-Category-V2": "hardware"
}
